…
Here we create the function `f`, generate some Normal draws, and then apply `f` to those draws.

``` r
sigma <- 1 / 2
mu <- 6
f <- function(x) { mu + sigma * x }

d = tibble::tibble(
    theta = rnorm(10000, mean = 0, sd = 1),
    f_theta = f(theta)
)

print(d)
## # A tibble: 10,000 × 2
##     theta f_theta
##     <dbl>   <dbl>
##  1  0.500    6.25
##  2  1.59     6.79
##  3  0.772    6.39
##  4  0.727    6.36
##  5  0.716    6.36
##  6  0.339    6.17
##  7  2.18     7.09
##  8 -0.502    5.75
##  9  0.477    6.24
## 10  0.656    6.33
## # ℹ 9,990 more rows
```
…
``` r
# This is a real value from the data
N <- 229625

# simulate Beta priors for pi and epsilon
# calculate N . eps . pi
v <- tibble::tibble(
  pi = rbeta(100000, 1, 1),
  epsilon = rbeta(100000, 1, 1),
  pop_estimate = N * epsilon * pi
) 

print(v)
## # A tibble: 100,000 × 3
##        pi epsilon pop_estimate
##     <dbl>   <dbl>        <dbl>
##  1 0.194   0.831       37100. 
##  2 0.486   0.614       68506. 
##  3 0.291   0.349       23346. 
##  4 0.0174  0.0184         73.6
##  5 0.820   0.0605      11389. 
##  6 0.340   0.0232       1813. 
##  7 0.296   0.621       42310. 
##  8 0.0121  0.848        2355. 
##  9 0.233   0.258       13783. 
## 10 0.915   0.992      208438. 
## # ℹ 99,990 more rows
```
…
Because this is causal inference and we want to be principled agnostics, we employ some default thinking and give each group mean a flat prior, estimating the difference in means after we have the means.
But if each group mean has a flat prior, what would be the implied prior for the difference in means?
*Not flat!*
We simulate another example, giving a flat prior to each mean and pushing the uncertainty into the treatment effect.

``` r
# simulate means and calculate difference
rct <- tibble::tibble(
  mu_0 = rbeta(1000000, 1, 1), 
  mu_1 = rbeta(1000000, 1, 1),
  trt = mu_1 - mu_0
)

print(rct)
## # A tibble: 1,000,000 × 3
##      mu_0    mu_1     trt
##     <dbl>   <dbl>   <dbl>
##  1 0.965  0.248   -0.716 
##  2 0.421  0.801    0.381 
##  3 0.0609 0.00852 -0.0524
##  4 0.942  0.410   -0.532 
##  5 0.222  0.918    0.696 
##  6 0.264  0.643    0.379 
##  7 0.764  0.798    0.0346
##  8 0.988  0.247   -0.741 
##  9 0.431  0.222   -0.209 
## 10 0.716  0.305   -0.411 
## # ℹ 999,990 more rows
```
…
